@startuml
interface List
abstract class AbstractList
class ArrayList
abstract class AbstractSequentialList
class LinkedList
List <|.. AbstractList
AbstractList <|-- ArrayList
AbstractList <|-- AbstractSequentialList
AbstractSequentialList <|-- LinkedList
@enduml
